module github.com/fullstorydev/hauser

require (
	cloud.google.com/go v0.36.0
	github.com/BurntSushi/toml v0.3.1
	github.com/aws/aws-sdk-go v1.17.12
	github.com/lib/pq v1.2.0
	github.com/nishanths/fullstory v0.0.0-20190306132154-272735d36088
	github.com/pkg/errors v0.8.1
)
